\relax 
\@writefile{toc}{\contentsline {chapter}{\numberline {1}HTML}{3}\protected@file@percent }
\@writefile{lof}{\addvspace {10\p@ }}
\@writefile{lot}{\addvspace {10\p@ }}
\@writefile{toc}{\contentsline {section}{\numberline {1.1}Cronologia}{3}\protected@file@percent }
\@writefile{toc}{\contentsline {section}{\numberline {1.2}Compatibilidad}{4}\protected@file@percent }
